﻿public List<MusicaDTO>  Consultar (string musica, string genero)
        {
            if (genero == "Todos")
            {
                genero = string.Empty;
            }

            return db.Consultar(musica, genero);
        }